,Sword,Axe,Dagger,Bow,Shield,Leather,Chain,Plate,Alchemy,Armsmaster,Bodybuilding,Disarm Trap,Identify Item,Identify Monster,Learning,Meditation,Merchant,Swimming,Fire Magic,Air Magic,Body Magic
Knight,2,2,1,1,2,1,2,2,-1,2,1,0,0,0,1,-1,0,2,-1,-1,-1
Paladin,2,2,1,1,2,1,2,1,-1,1,2,0,0,1,1,1,1,2,-1,-1,1
Archer,1,0,2,2,0,2,1,-1,0,1,1,2,1,2,1,0,2,2,0,0,-1
Druid,2,1,1,1,1,2,1,-1,1,1,0,1,2,2,2,1,1,2,1,1,1
Cleric,-1,2,1,0,1,1,2,-1,1,1,0,0,1,1,2,2,1,2,-1,-1,2
Sorcerer,-1,-1,1,0,-1,1,-1,-1,2,1,0,0,2,2,2,2,0,2,2,2,-1