,Slot,Style,Tier,Dice,DiceSides,Damage,Delay,Armor,PickupClass,Icon,IconWidth,IconHeight
Worn Sword,Main Hand,Sword,1,2,4,0,2.5,0,Blueprint'/Game/Blueprints/Items/BasicSwordPickup.BasicSwordPickup_C',Texture2D'/Game/UI/Equippables/sword1.sword1',1,4
Longsword,Main Hand,Sword,2,2,4,2,2.5,0,Blueprint'/Game/Blueprints/Items/BasicSwordPickup.BasicSwordPickup_C',Texture2D'/Game/UI/Equippables/sword2.sword2',1,4
Broadsword,Main Hand,Sword,3,2,4,4,2.5,0,Blueprint'/Game/Blueprints/Items/BasicSwordPickup.BasicSwordPickup_C',Texture2D'/Game/UI/Equippables/sword3.sword3',1,4
Knight's Sword,Main Hand,Sword,4,3,4,4,2.5,0,Blueprint'/Game/Blueprints/Items/BasicSwordPickup.BasicSwordPickup_C',Texture2D'/Game/UI/Equippables/sword4.sword4',1,4
Crystal Sword,Main Hand,Sword,5,3,4,6,2.5,0,Blueprint'/Game/Blueprints/Items/BasicSwordPickup.BasicSwordPickup_C',Texture2D'/Game/UI/Equippables/sword5.sword5',1,4
Excalibur,Main Hand,Sword,6,4,6,10,2.5,0,Blueprint'/Game/Blueprints/Items/BasicSwordPickup.BasicSwordPickup_C',Texture2D'/Game/UI/Equippables/sword_artifact.sword_artifact',1,4
Worn Axe,Main Hand,Axe,1,3,2,0,3.5,0,Blueprint'/Game/Blueprints/Items/BasicAxePickup.BasicAxePickup_C',Texture2D'/Game/UI/Equippables/axe1.axe1',1,4
Hand Axe,Main Hand,Axe,2,4,2,1,3.5,0,Blueprint'/Game/Blueprints/Items/BasicAxePickup.BasicAxePickup_C',Texture2D'/Game/UI/Equippables/axe2.axe2',1,4
Battle Axe,Main Hand,Axe,3,4,3,2,3.5,0,Blueprint'/Game/Blueprints/Items/BasicAxePickup.BasicAxePickup_C',Texture2D'/Game/UI/Equippables/axe3.axe3',2,4
War Axe,Main Hand,Axe,4,4,3,5,3.5,0,Blueprint'/Game/Blueprints/Items/BasicAxePickup.BasicAxePickup_C',Texture2D'/Game/UI/Equippables/axe4.axe4',2,4
Guillotine Axe,Main Hand,Axe,5,4,4,12,3.5,0,Blueprint'/Game/Blueprints/Items/BasicAxePickup.BasicAxePickup_C',Texture2D'/Game/UI/Equippables/axe5.axe5',2,3
Minotaur King's Axe,Main Hand,Axe,6,8,3,12,3.5,0,Blueprint'/Game/Blueprints/Items/BasicAxePickup.BasicAxePickup_C',Texture2D'/Game/UI/Equippables/axe_artifact.axe_artifact',2,4
Worn Dagger,Main Hand,Dagger,1,1,4,0,1.8,0,Blueprint'/Game/Blueprints/Items/DaggerPickup.DaggerPickup_C',Texture2D'/Game/UI/Equippables/dagger1.dagger1',1,2
Thief's Dagger,Main Hand,Dagger,2,2,2,2,1.8,0,Blueprint'/Game/Blueprints/Items/DaggerPickup.DaggerPickup_C',Texture2D'/Game/UI/Equippables/dagger2.dagger2',1,2
Jeweled Dagger,Main Hand,Dagger,3,2,3,2,1.8,0,Blueprint'/Game/Blueprints/Items/DaggerPickup.DaggerPickup_C',Texture2D'/Game/UI/Equippables/dagger3.dagger3',1,2
Blood Dagger,Main Hand,Dagger,4,2,3,4,1.8,0,Blueprint'/Game/Blueprints/Items/DaggerPickup.DaggerPickup_C',Texture2D'/Game/UI/Equippables/dagger4.dagger4',1,2
Deadly Dagger,Main Hand,Dagger,5,6,1,8,1.8,0,Blueprint'/Game/Blueprints/Items/DaggerPickup.DaggerPickup_C',Texture2D'/Game/UI/Equippables/dagger5.dagger5',1,2
Vorpal Blade,Main Hand,Dagger,6,4,4,12,1.6,0,Blueprint'/Game/Blueprints/Items/DaggerPickup.DaggerPickup_C',Texture2D'/Game/UI/Equippables/artifact_dagger.artifact_dagger',1,2
Shortbow,Ranged,Bow,1,1,5,0,3,0,Blueprint'/Game/Blueprints/Items/BowPickup.BowPickup_C',Texture2D'/Game/UI/Equippables/bow1.bow1',1,4
Longbow,Ranged,Bow,3,2,4,0,3.5,0,Blueprint'/Game/Blueprints/Items/BowPickup.BowPickup_C',Texture2D'/Game/UI/Equippables/bow3.bow3',1,6
Composite Bow,Ranged,Bow,5,3,4,2,3.5,0,Blueprint'/Game/Blueprints/Items/BowPickup.BowPickup_C',Texture2D'/Game/UI/Equippables/bow5.bow5',1,6
Eurytus' Bow,Ranged,Bow,6,7,5,8,3.2,0,Blueprint'/Game/Blueprints/Items/BowPickup.BowPickup_C',Texture2D'/Game/UI/Equippables/artifact_bow.artifact_bow',1,6
Worn Leather Boots,Feet,Leather,1,0,0,0,0,1,Blueprint'/Game/Blueprints/Items/BootPickup.BootPickup_C',Texture2D'/Game/UI/Equippables/leatherboots1.leatherboots1',2,2
Leather Boots,Feet,Leather,3,0,0,0,0,2,Blueprint'/Game/Blueprints/Items/BootPickup.BootPickup_C',Texture2D'/Game/UI/Equippables/leatherboots3.leatherboots3',2,2
Chain Boots,Feet,Chain,2,0,0,0,0,2,Blueprint'/Game/Blueprints/Items/BootPickup.BootPickup_C',Texture2D'/Game/UI/Equippables/chainboots2.chainboots2',2,2
Royal Chain Boots,Feet,Chain,4,0,0,0,0,4,Blueprint'/Game/Blueprints/Items/BootPickup.BootPickup_C',Texture2D'/Game/UI/Equippables/chainboots4.chainboots4',2,2
Rusty Sabatons,Feet,Plate,2,0,0,0,0,4,Blueprint'/Game/Blueprints/Items/BootPickup.BootPickup_C',Texture2D'/Game/UI/Equippables/plateboots2.plateboots2',2,2
Steel Sabatons,Feet,Plate,4,0,0,0,0,7,Blueprint'/Game/Blueprints/Items/BootPickup.BootPickup_C',Texture2D'/Game/UI/Equippables/plateboots4.plateboots4',2,2
Seven-league Boots,Feet,Leather,6,0,0,0,0,3,Blueprint'/Game/Blueprints/Items/BootPickup.BootPickup_C',Texture2D'/Game/UI/Equippables/boots_artifact.boots_artifact',2,2
Worn Leather Armor,Body,Leather,1,0,0,0,0,3,Blueprint'/Game/Blueprints/Items/BreastplatePickup.BreastplatePickup_C',Texture2D'/Game/UI/Equippables/leatherbody1.leatherbody1',4,6
Leather Armor,Body,Leather,4,0,0,0,0,6,Blueprint'/Game/Blueprints/Items/BreastplatePickup.BreastplatePickup_C',Texture2D'/Game/UI/Equippables/leatherbody4.leatherbody4',4,6
Chain Mail,Body,Chain,2,0,0,0,0,5,Blueprint'/Game/Blueprints/Items/BreastplatePickup.BreastplatePickup_C',Texture2D'/Game/UI/Equippables/chainbody2.chainbody2',4,6
Royal Chain Mail,Body,Chain,5,0,0,0,0,8,Blueprint'/Game/Blueprints/Items/BreastplatePickup.BreastplatePickup_C',Texture2D'/Game/UI/Equippables/chainbody5.chainbody5',4,6
Rusty Plate Mail,Body,Plate,2,0,0,0,0,7,Blueprint'/Game/Blueprints/Items/BreastplatePickup.BreastplatePickup_C',Texture2D'/Game/UI/Equippables/platebody2.platebody2',4,6
Plate Mail,Body,Plate,5,0,0,0,0,12,Blueprint'/Game/Blueprints/Items/BreastplatePickup.BreastplatePickup_C',Texture2D'/Game/UI/Equippables/platebody5.platebody5',4,6
Mithril Chain Mail,Body,Chain,6,0,0,0,0,15,Blueprint'/Game/Blueprints/Items/BreastplatePickup.BreastplatePickup_C',Texture2D'/Game/UI/Equippables/artifact_body.artifact_body',4,5
Tattered Helm,Head,Leather,1,0,0,0,0,1,Blueprint'/Game/Blueprints/Items/HelmetPickup.HelmetPickup_C',Texture2D'/Game/UI/Equippables/leatherhelmet1.leatherhelmet1',2,2
Padded Leather Helm,Head,Leather,3,0,0,0,0,2,Blueprint'/Game/Blueprints/Items/HelmetPickup.HelmetPickup_C',Texture2D'/Game/UI/Equippables/leatherhelmet3.leatherhelmet3',2,2
Chain Helm,Head,Chain,2,0,0,0,0,2,Blueprint'/Game/Blueprints/Items/HelmetPickup.HelmetPickup_C',Texture2D'/Game/UI/Equippables/chainhelmet2.chainhelmet2',2,2
Royal Chain Helm,Head,Chain,3,0,0,0,0,5,Blueprint'/Game/Blueprints/Items/HelmetPickup.HelmetPickup_C',Texture2D'/Game/UI/Equippables/chainhelmet3.chainhelmet3',2,2
Rusty Barbute,Head,Plate,2,0,0,0,0,4,Blueprint'/Game/Blueprints/Items/HelmetPickup.HelmetPickup_C',Texture2D'/Game/UI/Equippables/platehelmet2.platehelmet2',2,2
Barbute,Head,Plate,3,0,0,0,0,8,Blueprint'/Game/Blueprints/Items/HelmetPickup.HelmetPickup_C',Texture2D'/Game/UI/Equippables/platehelmet3.platehelmet3',2,2
Ancient King's Mask,Head,Plate,6,0,0,0,0,20,Blueprint'/Game/Blueprints/Items/HelmetPickup.HelmetPickup_C',Texture2D'/Game/UI/Equippables/artifact_head.artifact_head',2,2
Buckler,Off Hand,Shield,1,0,0,0,0,3,Blueprint'/Game/Blueprints/Items/ShieldPickup.ShieldPickup_C',Texture2D'/Game/UI/Equippables/shield1.shield1',2,2
Kite Shield,Off Hand,Shield,3,0,0,0,0,7,Blueprint'/Game/Blueprints/Items/ShieldPickup.ShieldPickup_C',Texture2D'/Game/UI/Equippables/shield3.shield3',3,5
Tower Shield,Off Hand,Shield,5,0,0,0,0,12,Blueprint'/Game/Blueprints/Items/ShieldPickup.ShieldPickup_C',Texture2D'/Game/UI/Equippables/shield5.shield5',3,4
Aegis,Off Hand,Shield,6,0,0,0,0,20,Blueprint'/Game/Blueprints/Items/ShieldPickup.ShieldPickup_C',Texture2D'/Game/UI/Equippables/artifact_shield.artifact_shield',3,3